{
	"name": "poetry3-poetry-pyenv",
	"build": {
		"dockerfile": "Dockerfile"
	},

	// 👇 Features to add to the Dev Container. More info: https://containers.dev/implementors/features.
	"features": {
		"ghcr.io/devcontainers-contrib/features/go-task:1": {}
	},

	// 👇 Use 'forwardPorts' to make a list of ports inside the container available locally.
	// "forwardPorts": [],

	// 👇 Use 'postCreateCommand' to run commands after the container is created.
	// "postCreateCommand": "",

	// 👇 Configure tool-specific properties.
	"customizations": {
        "vscode": {
            "extensions":["ms-python.python", "njpwerner.autodocstring", "ms-azuretools.vscode-docker"]
            }
		}

	// 👇 Uncomment to connect as root instead. More info: https://aka.ms/dev-containers-non-root.
	// "remoteUser": "root"
}
